…
Graphs

In this part, we are going to generate multiple graphs for
exploratory analysis of the data. And each graph will contains the
interpretation for it below the graph.

Barplot

newdata

## # A tibble: 30 × 12
##    status from  symbol open  high  low   close volume after…¹ preMa…² change summary
##    <chr>  <chr> <chr>  <chr> <chr> <chr> <chr> <chr>  <chr>   <chr>    <dbl> <chr>  
##  1 OK     2021… AAPL   142.… 144.… 141.… 142.… 63952… 142.59  142.05   0.540 rise   
##  2 OK     2021… AAPL   143.… 143.… 141.… 141.… 73035… 139.63  142.3   -1.72  decline
##  3 OK     2021… AAPL   141.… 141.4 139.2 140.… 78762… 141.24  140.2   -0.325 decline
##  4 OK     2021… AAPL   142.… 143.… 141.… 143.… 69891… 143.94  141.71   1.65  rise   
##  5 OK     2021… AAPL   143.… 144.… 143.… 144.… 67642… 144.95  143.91   1.07  rise   
##  6 OK     2021… AAPL   143.… 146.… 143.… 146.… 85389… 146.79  144.39   3.11  rise   
##  7 OK     2021… AAPL   147.… 149.… 146.… 148.… 76378… 148.6   146.79   1.75  rise   
##  8 OK     2021… AAPL   148.7 149.… 148.… 149.… 58418… 148.88  148.58   0.560 rise   
##  9 OK     2021… AAPL   148.… 149.… 147.… 149.… 61345… 149.15  148.92   0.670 rise   
## 10 OK     2021… AAPL   149.… 150.… 148.… 148.… 58855… 148.46  149.23  -1     decline
## # … with 20 more rows, and abbreviated variable names ¹​afterHours, ²​preMarket
…
